CPUs: 4
1 ,2145037
1 ,2294403
1 ,2169390
1 ,2159417

2 ,2540948
2 ,2299969
2 ,2583044
2 ,2299969

3 ,2299969
3 ,2299969
3 ,2299969
3 ,2299969

4 ,2299969
4 ,2299969
4 ,2299969
4 ,2299969

5 ,2299969
5 ,2299969
5 ,2299969
5 ,2299969

6 ,2299969
6 ,2299969
6 ,2299969
6 ,2299969

7 ,2299969
7 ,2299969
7 ,2299969
7 ,2299969

8 ,2299969
8 ,2299969
8 ,2299969
8 ,2299969

9 ,2299969
9 ,2299969
9 ,2299969
9 ,2299969

10 ,2299969
10 ,2299969
10 ,2299969
10 ,2299969

11 ,2299969
11 ,2299969
11 ,2299969
11 ,2299969

12 ,2299969
12 ,2299969
12 ,2299969
12 ,2299969

13 ,2299969
13 ,2299969
13 ,2299969
13 ,2299969

14 ,2299969
14 ,2299969
14 ,2299969
14 ,2299969

15 ,2299969
15 ,2299969
15 ,2299969
15 ,2299969

16 ,2299969
16 ,2299969
16 ,2299969
16 ,2299969

17 ,2299969
17 ,2299969
17 ,2299969
17 ,2299969

18 ,2299969
18 ,2299969
18 ,2299969
18 ,2299969

19 ,2299969
19 ,2299969
19 ,2299969
19 ,2299969

20 ,2299969
20 ,2299969
20 ,2299969
20 ,2299969

21 ,2299969
21 ,2299969
21 ,2299969
21 ,2299969

22 ,2299969
22 ,2299969
22 ,2299969
22 ,2299969

23 ,2299969
23 ,2299969
23 ,2299969
23 ,2299969

24 ,2299969
24 ,2299969
24 ,2299969
24 ,2299969

25 ,2299969
25 ,2299969
25 ,2299969
25 ,2299969

26 ,2299969
26 ,2299969
26 ,2299969
26 ,2299969

27 ,2299969
27 ,2299969
27 ,2299969
27 ,2299969

28 ,2299969
28 ,2299969
28 ,2299969
28 ,2299969

29 ,2299969
29 ,2299969
29 ,2299969
29 ,2299969

30 ,2299969
30 ,2299969
30 ,2299969
30 ,2299969

31 ,2299969
31 ,2299969
31 ,2299969
31 ,2299969

32 ,2299969
32 ,2299969
32 ,2299969
32 ,2299969

33 ,2299969
33 ,2299969
33 ,2299969
33 ,2299969

34 ,2299969
34 ,2299969
34 ,2299969
34 ,2299969

35 ,2299969
35 ,2299969
35 ,2299969
35 ,2299969

36 ,2299969
36 ,2299969
36 ,2299969
36 ,2299969

37 ,2299969
37 ,2299969
37 ,2299969
37 ,2299969

38 ,2299969
38 ,2299969
38 ,2299969
38 ,2299969

39 ,2299969
39 ,2299969
39 ,2299969
39 ,2299969

40 ,2299969
40 ,2299969
40 ,2299969
40 ,2299969

41 ,2299969
41 ,2299969
41 ,2299969
41 ,2299969

42 ,2299969
42 ,2299969
42 ,2299969
42 ,2299969

43 ,2299969
43 ,2299969
43 ,2299969
43 ,2299969

44 ,2299969
44 ,2299969
44 ,2299969
44 ,2299969

45 ,2299969
45 ,2299969
45 ,2299969
45 ,2299969

46 ,2299969
46 ,2299969
46 ,2299969
46 ,2299969

47 ,2299969
47 ,2299969
47 ,2299969
47 ,2299969

48 ,2299969
48 ,2299969
48 ,2299969
48 ,2299969

49 ,2299969
49 ,2299969
49 ,2299969
49 ,2299969

50 ,2299969
50 ,2299969
50 ,2299969
50 ,2299969

51 ,2299969
51 ,2299969
51 ,2299969
51 ,2299969

52 ,2299969
52 ,2299969
52 ,2299969
52 ,2299969

53 ,2299969
53 ,2299969
53 ,2299969
53 ,2299969

54 ,2299969
54 ,2299969
54 ,2299969
54 ,2299969

55 ,2299969
55 ,2299969
55 ,2299969
55 ,2299969

56 ,2299969
56 ,2299969
56 ,2299969
56 ,2299969

57 ,2299969
57 ,2299969
57 ,2299969
57 ,2299969

58 ,2299969
58 ,2299969
58 ,2299969
58 ,2299969

59 ,2299969
59 ,2299969
59 ,2299969
59 ,2299969

60 ,2299969
60 ,2299969
60 ,2299969
60 ,2299969

61 ,2299969
61 ,2299969
61 ,2299969
61 ,2299969

62 ,2299969
62 ,2299969
62 ,2299969
62 ,2299969

63 ,2299969
63 ,2299969
63 ,2299969
63 ,2299969

64 ,2299969
64 ,2299969
64 ,2299969
64 ,2299969

65 ,2299969
65 ,2299969
65 ,2299969
65 ,2299969

66 ,2299969
66 ,2299969
66 ,2299969
66 ,2299969

67 ,2299969
67 ,2299969
67 ,2299969
67 ,2299969

68 ,2299969
68 ,2299969
68 ,2299969
68 ,2299969

69 ,2299969
69 ,2299969
69 ,2299969
69 ,2299969

70 ,2299969
70 ,2299969
70 ,2299969
70 ,2299969

71 ,2299969
71 ,2299969
71 ,2299969
71 ,2299969

72 ,2299969
72 ,2299969
72 ,2299969
72 ,2299969

73 ,2299969
73 ,2299969
73 ,2299969
73 ,2299969

74 ,2299969
74 ,2299969
74 ,2299969
74 ,2299969

75 ,2299969
75 ,2299969
75 ,2299969
75 ,2299969

76 ,2299969
76 ,2299969
76 ,2299969
76 ,2299969

77 ,2299969
77 ,2299969
77 ,2299969
77 ,2299969

78 ,2299969
78 ,2299969
78 ,2299969
78 ,2299969

79 ,2299969
79 ,2299969
79 ,2299969
79 ,2299969

80 ,2299969
80 ,2299969
80 ,2299969
80 ,2299969

81 ,2299969
81 ,2299969
81 ,2299969
81 ,2299969

82 ,2299969
82 ,2299969
82 ,2299969
82 ,2299969

83 ,2299969
83 ,2299969
83 ,2299969
83 ,2299969

84 ,2299969
84 ,2299969
84 ,2299969
84 ,2299969

85 ,2299969
85 ,2299969
85 ,2299969
85 ,2299969

86 ,2299969
86 ,2299969
86 ,2299969
86 ,2299969

87 ,2299969
87 ,2299969
87 ,2299969
87 ,2299969

88 ,2299969
88 ,2299969
88 ,2299969
88 ,2299969

89 ,2299969
89 ,2299969
89 ,2299969
89 ,2299969

90 ,2299969
90 ,2299969
90 ,2299969
90 ,2299969

91 ,2299969
91 ,2299969
91 ,2299969
91 ,2299969

92 ,2299969
92 ,2299969
92 ,2299969
92 ,2299969

93 ,2299969
93 ,2299969
93 ,2299969
93 ,2299969

94 ,2299969
94 ,2299969
94 ,2299969
94 ,2299969

95 ,2299969
95 ,2299969
95 ,2299969
95 ,2299969

96 ,2299969
96 ,2299969
96 ,2299969
96 ,2299969

97 ,2299969
97 ,2299969
97 ,2299969
97 ,2299969

98 ,2299969
98 ,2299969
98 ,2299969
98 ,2299969

99 ,2299969
99 ,2299969
99 ,2299969
99 ,2299969

100 ,2299969
100 ,2299969
100 ,2299969
100 ,2299969

101 ,2299969
101 ,2299969
101 ,2299969
101 ,2299969

102 ,2299969
102 ,2299969
102 ,2299969
102 ,2299969

103 ,2299969
103 ,2299969
103 ,2299969
103 ,2299969

104 ,2299969
104 ,2299969
104 ,2299969
104 ,2299969

105 ,2299969
105 ,2299969
105 ,2299969
105 ,2299969

106 ,2299969
106 ,2299969
106 ,2299969
106 ,2299969

107 ,2299969
107 ,2299969
107 ,2299969
107 ,2299969

108 ,2299969
108 ,2299969
108 ,2299969
108 ,2299969

109 ,2299969
109 ,2299969
109 ,2299969
109 ,2299969

110 ,2299969
110 ,2299969
110 ,2299969
110 ,2299969

111 ,2299969
111 ,2299969
111 ,2299969
111 ,2299969

112 ,2299969
112 ,2299969
112 ,2299969
112 ,2299969

113 ,2299969
113 ,2299969
113 ,2299969
113 ,2299969

114 ,2299969
114 ,2299969
114 ,2299969
114 ,2299969

115 ,2299969
115 ,2299969
115 ,2299969
115 ,2299969

116 ,2299969
116 ,2299969
116 ,2299969
116 ,2299969

117 ,2299969
117 ,2299969
117 ,2299969
117 ,2299969

118 ,2299969
118 ,2299969
118 ,2299969
118 ,2299969

119 ,2299969
119 ,2299969
119 ,2299969
119 ,2299969

120 ,2299969
120 ,2299969
120 ,2299969
120 ,2299969

121 ,2299969
121 ,2299969
121 ,2299969
121 ,2299969

122 ,2299969
122 ,2299969
122 ,2299969
122 ,2299969

123 ,2299969
123 ,2299969
123 ,2299969
123 ,2299969

124 ,2299969
124 ,2299969
124 ,2299969
124 ,2299969

125 ,2299969
125 ,2299969
125 ,2299969
125 ,2299969

126 ,2299969
126 ,2299969
126 ,2299969
126 ,2299969

127 ,2299969
127 ,2299969
127 ,2299969
127 ,2299969

128 ,2299969
128 ,2299969
128 ,2299969
128 ,2299969

129 ,2299969
129 ,2299969
129 ,2299969
129 ,2299969

130 ,2299969
130 ,2299969
130 ,2299969
130 ,2299969

131 ,2299969
131 ,2299969
131 ,2299969
131 ,2299969

132 ,2299969
132 ,2299969
132 ,2299969
132 ,2299969

133 ,2299969
133 ,2299969
133 ,2299969
133 ,2299969

134 ,2299969
134 ,2299969
134 ,2299969
134 ,2299969

135 ,2299969
135 ,2299969
135 ,2299969
135 ,2299969

136 ,2299969
136 ,2299969
136 ,2299969
136 ,2299969

137 ,2299969
137 ,2299969
137 ,2299969
137 ,2299969

138 ,2299969
138 ,2299969
138 ,2299969
138 ,2299969

139 ,2299969
139 ,2299969
139 ,2299969
139 ,2299969

140 ,2299969
140 ,2299969
140 ,2299969
140 ,2299969

141 ,2299969
141 ,2299969
141 ,2299969
141 ,2299969

142 ,2299969
142 ,2299969
142 ,2299969
142 ,2299969

143 ,2299969
143 ,2299969
143 ,2299969
143 ,2299969

144 ,2299969
144 ,2299969
144 ,2299969
144 ,2299969

145 ,2299969
145 ,2299969
145 ,2299969
145 ,2299969

146 ,2299969
146 ,2299969
146 ,2299969
146 ,2299969

147 ,2299969
147 ,2299969
147 ,2299969
147 ,2299969

148 ,2299969
148 ,2299969
148 ,2299969
148 ,2299969

149 ,2299969
149 ,2299969
149 ,2299969
149 ,2299969

150 ,2299969
150 ,2299969
150 ,2299969
150 ,2299969

151 ,2299969
151 ,2299969
151 ,2299969
151 ,2299969

152 ,2299969
152 ,2299969
152 ,2299969
152 ,2299969

153 ,2299969
153 ,2299969
153 ,2299969
153 ,2299969

154 ,2299969
154 ,2299969
154 ,2299969
154 ,2299969

155 ,2299969
155 ,2299969
155 ,2299969
155 ,2299969

156 ,2299969
156 ,2299969
156 ,2299969
156 ,2299969

157 ,2299969
157 ,2299969
157 ,2299969
157 ,2299969

158 ,2299969
158 ,2299969
158 ,2299969
158 ,2299969

159 ,2299969
159 ,2299969
159 ,2299969
159 ,2299969

160 ,2299969
160 ,2299969
160 ,2299969
160 ,2299969

161 ,2299969
161 ,2299969
161 ,2299969
161 ,2299969

162 ,2299969
162 ,2299969
162 ,2299969
162 ,2299969

163 ,2299969
163 ,2299969
163 ,2299969
163 ,2299969

164 ,2299969
164 ,2299969
164 ,2299969
164 ,2299969

165 ,2299969
165 ,2299969
165 ,2299969
165 ,2299969

166 ,2299969
166 ,2299969
166 ,2299969
166 ,2299969

167 ,2299969
167 ,2299969
167 ,2299969
167 ,2299969

168 ,2299969
168 ,2299969
168 ,2299969
168 ,2299969

169 ,2299969
169 ,2299969
169 ,2299969
169 ,2299969

170 ,2299969
170 ,2299969
170 ,2299969
170 ,2299969

171 ,2299969
171 ,2299969
171 ,2299969
171 ,2299969

172 ,2299969
172 ,2299969
172 ,2299969
172 ,2299969

173 ,2299969
173 ,2299969
173 ,2299969
173 ,2299969

174 ,2299969
174 ,2299969
174 ,2299969
174 ,2299969

175 ,2299969
175 ,2299969
175 ,2299969
175 ,2299969

176 ,2299969
176 ,2299969
176 ,2299969
176 ,2299969

177 ,2299969
177 ,2299969
177 ,2299969
177 ,2299969

178 ,2299969
178 ,2299969
178 ,2299969
178 ,2299969

179 ,2299969
179 ,2299969
179 ,2299969
179 ,2299969

180 ,2299969
180 ,2299969
180 ,2299969
180 ,2299969

181 ,2299969
181 ,2299969
181 ,2299969
181 ,2299969

182 ,2299969
182 ,2299969
182 ,2299969
182 ,2299969

183 ,2299969
183 ,2299969
183 ,2299969
183 ,2299969

184 ,2299969
184 ,2299969
184 ,2299969
184 ,2299969

185 ,2299969
185 ,2299969
185 ,2299969
185 ,2299969

186 ,2299969
186 ,2299969
186 ,2299969
186 ,2299969

187 ,2299969
187 ,2299969
187 ,2299969
187 ,2299969

188 ,2299969
188 ,2299969
188 ,2299969
188 ,2299969

189 ,2299969
189 ,2299969
189 ,2299969
189 ,2299969

190 ,2299969
190 ,2299969
190 ,2299969
190 ,2299969

191 ,2299969
191 ,2299969
191 ,2299969
191 ,2299969

192 ,2299969
192 ,2299969
192 ,2299969
192 ,2299969

193 ,2299969
193 ,2299969
193 ,2299969
193 ,2299969

194 ,2299969
194 ,2299969
194 ,2299969
194 ,2299969

195 ,2299969
195 ,2299969
195 ,2299969
195 ,2299969

196 ,2299969
196 ,2299969
196 ,2299969
196 ,2299969

197 ,2299969
197 ,2299969
197 ,2299969
197 ,2299969

198 ,2299969
198 ,2299969
198 ,2299969
198 ,2299969

199 ,2299969
199 ,2299969
199 ,2299969
199 ,2299969

200 ,2299969
200 ,2299969
200 ,2299969
200 ,2299969

201 ,2299969
201 ,2299969
201 ,2299969
201 ,2299969

202 ,2299969
202 ,2299969
202 ,2299969
202 ,2299969

203 ,2299969
203 ,2299969
203 ,2299969
203 ,2299969

204 ,2299969
204 ,2299969
204 ,2299969
204 ,2299969

205 ,2299969
205 ,2299969
205 ,2299969
205 ,2299969

206 ,2299969
206 ,2299969
206 ,2299969
206 ,2299969

207 ,2299969
207 ,2299969
207 ,2299969
207 ,2299969

208 ,2299969
208 ,2299969
208 ,2299969
208 ,2299969

209 ,2299969
209 ,2299969
209 ,2299969
209 ,2299969

210 ,2299969
210 ,2299969
210 ,2299969
210 ,2299969

211 ,2299969
211 ,2299969
211 ,2299969
211 ,2299969

212 ,2299969
212 ,2299969
212 ,2299969
212 ,2299969

213 ,2299969
213 ,2299969
213 ,2299969
213 ,2299969

214 ,2299969
214 ,2299969
214 ,2299969
214 ,2299969

215 ,2299969
215 ,2299969
215 ,2299969
215 ,2299969

216 ,2299969
216 ,2299969
216 ,2299969
216 ,2299969

217 ,2299969
217 ,2299969
217 ,2299969
217 ,2299969

218 ,2299969
218 ,2299969
218 ,2299969
218 ,2299969

219 ,2299969
219 ,2299969
219 ,2299969
219 ,2299969

220 ,2299969
220 ,2299969
220 ,2299969
220 ,2299969

221 ,2299969
221 ,2299969
221 ,2299969
221 ,2299969

222 ,2299969
222 ,2299969
222 ,2299969
222 ,2299969

223 ,2299969
223 ,2299969
223 ,2299969
223 ,2299969

224 ,2299969
224 ,2299969
224 ,2299969
224 ,2299969

225 ,2299969
225 ,2299969
225 ,2299969
225 ,2299969

226 ,2299969
226 ,2299969
226 ,2299969
226 ,2299969

227 ,2299969
227 ,2299969
227 ,2299969
227 ,2299969

228 ,2299969
228 ,2299969
228 ,2299969
228 ,2299969

229 ,2299969
229 ,2299969
229 ,2299969
229 ,2299969

230 ,2299969
230 ,2299969
230 ,2299969
230 ,2299969

231 ,2299969
231 ,2299969
231 ,2299969
231 ,2299969

232 ,2299969
232 ,2299969
232 ,2299969
232 ,2299969

233 ,2299969
233 ,2299969
233 ,2299969
233 ,2299969

234 ,2299969
234 ,2299969
234 ,2299969
234 ,2299969

235 ,2299969
235 ,2299969
235 ,2299969
235 ,2299969

236 ,2299969
236 ,2299969
236 ,2299969
236 ,2299969

237 ,2299969
237 ,2299969
237 ,2299969
237 ,2299969

238 ,2299969
238 ,2299969
238 ,2299969
238 ,2299969

239 ,2299969
239 ,2299969
239 ,2299969
239 ,2299969

240 ,2299969
240 ,2299969
240 ,2299969
240 ,2299969

241 ,2299969
241 ,2299969
241 ,2299969
241 ,2299969

242 ,2299969
242 ,2299969
242 ,2299969
242 ,2299969

243 ,2299969
243 ,2299969
243 ,2299969
243 ,2299969

244 ,2299969
244 ,2299969
244 ,2299969
244 ,2299969

245 ,2299969
245 ,2299969
245 ,2299969
245 ,2299969

246 ,2299969
246 ,2299969
246 ,2299969
246 ,2299969

247 ,2299969
247 ,2299969
247 ,2299969
247 ,2299969

248 ,2299969
248 ,2299969
248 ,2299969
248 ,2299969

249 ,2299969
249 ,2299969
249 ,2299969
249 ,2299969

250 ,2299969
250 ,2299969
250 ,2299969
250 ,2299969

251 ,2299969
251 ,2299969
251 ,2299969
251 ,2299969

252 ,2299969
252 ,2299969
252 ,2299969
252 ,2299969

253 ,2299969
253 ,2299969
253 ,2299969
253 ,2299969

254 ,2299969
254 ,2299969
254 ,2299969
254 ,2299969

255 ,2299969
255 ,2299969
255 ,2299969
255 ,2299969

256 ,2299969
256 ,2299969
256 ,2299969
256 ,2299969

257 ,2299969
257 ,2299969
257 ,2299969
257 ,2299969

258 ,2299969
258 ,2299969
258 ,2299969
258 ,2299969

259 ,2299969
259 ,2299969
259 ,2299969
259 ,2299969

260 ,2299969
260 ,2299969
260 ,2299969
260 ,2299969

261 ,2299969
261 ,2299969
261 ,2299969
261 ,2299969

262 ,2299969
262 ,2299969
262 ,2299969
262 ,2299969

263 ,2299969
263 ,2299969
263 ,2299969
263 ,2299969

264 ,2299969
264 ,2299969
264 ,2299969
264 ,2299969

265 ,2299969
265 ,2299969
265 ,2299969
265 ,2299969

266 ,2299969
266 ,2299969
266 ,2299969
266 ,2299969

267 ,2299969
267 ,2299969
267 ,2299969
267 ,2299969

268 ,2299969
268 ,2299969
268 ,2299969
268 ,2299969

269 ,2299969
269 ,2299969
269 ,2299969
269 ,2299969

270 ,2299969
270 ,2299969
270 ,2299969
270 ,2299969

271 ,2299969
271 ,2299969
271 ,2299969
271 ,2299969

272 ,2299969
272 ,2299969
272 ,2299969
272 ,2299969

273 ,2299969
273 ,2299969
273 ,2299969
273 ,2299969

274 ,2299969
274 ,2299969
274 ,2299969
274 ,2299969

275 ,2299969
275 ,2299969
275 ,2299969
275 ,2299969

276 ,2299969
276 ,2299969
276 ,2299969
276 ,2299969

277 ,2299969
277 ,2299969
277 ,2299969
277 ,2299969

278 ,2299969
278 ,2299969
278 ,2299969
278 ,2299969

279 ,2299969
279 ,2299969
279 ,2299969
279 ,2299969

280 ,2299969
280 ,2299969
280 ,2299969
280 ,2299969

281 ,2299969
281 ,2299969
281 ,2299969
281 ,2299969

282 ,2299969
282 ,2299969
282 ,2299969
282 ,2299969

283 ,2299969
283 ,2299969
283 ,2299969
283 ,2299969

284 ,2299969
284 ,2299969
284 ,2299969
284 ,2299969

285 ,2299969
285 ,2299969
285 ,2299969
285 ,2299969

286 ,2299969
286 ,2299969
286 ,2299969
286 ,2299969

287 ,2299969
287 ,2299969
287 ,2299969
287 ,2299969

288 ,2299969
288 ,2299969
288 ,2299969
288 ,2299969

289 ,2299969
289 ,2299969
289 ,2299969
289 ,2299969

290 ,2299969
290 ,2299969
290 ,2299969
290 ,2299969

291 ,2299969
291 ,2299969
291 ,2299969
291 ,2299969

292 ,2299969
292 ,2299969
292 ,2299969
292 ,2299969

293 ,2299969
293 ,2299969
293 ,2299969
293 ,2299969

294 ,2299969
294 ,2299969
294 ,2299969
294 ,2299969

295 ,2299969
295 ,2299969
295 ,2299969
295 ,2299969

296 ,2299969
296 ,2299969
296 ,2299969
296 ,2299969

297 ,2299969
297 ,2299969
297 ,2299969
297 ,2299969

298 ,2299969
298 ,2299969
298 ,2299969
298 ,2299969

299 ,2299969
299 ,2299969
299 ,2299969
299 ,2299969

300 ,2299969
300 ,2299969
300 ,2299969
300 ,2299969

301 ,2299969
301 ,2299969
301 ,2299969
301 ,2299969

302 ,2299969
302 ,2299969
302 ,2299969
302 ,2299969

303 ,2299969
303 ,2299969
303 ,2299969
303 ,2299969

304 ,2299969
304 ,2299969
304 ,2299969
304 ,2299969

305 ,2299969
305 ,2299969
305 ,2299969
305 ,2299969

306 ,2299969
306 ,2299969
306 ,2299969
306 ,2299969

307 ,2299969
307 ,2299969
307 ,2299969
307 ,2299969

308 ,2299969
308 ,2299969
308 ,2299969
308 ,2299969

309 ,2299969
309 ,2299969
309 ,2299969
309 ,2299969

310 ,2299969
310 ,2299969
310 ,2299969
310 ,2299969

311 ,2299969
311 ,2299969
311 ,2299969
311 ,2299969

312 ,2299969
312 ,2299969
312 ,2299969
312 ,2299969

313 ,2299969
313 ,2299969
313 ,2299969
313 ,2299969

314 ,2299969
314 ,2299969
314 ,2299969
314 ,2299969

315 ,2299969
315 ,2299969
315 ,2299969
315 ,2299969

316 ,2299969
316 ,2299969
316 ,2299969
316 ,2299969

317 ,2299969
317 ,2299969
317 ,2299969
317 ,2299969

318 ,2299969
318 ,2299969
318 ,2299969
318 ,2299969

319 ,2299969
319 ,2299969
319 ,2299969
319 ,2299969

320 ,2299969
320 ,2299969
320 ,2299969
320 ,2299969

321 ,2299969
321 ,2299969
321 ,2299969
321 ,2299969

322 ,2299969
322 ,2299969
322 ,2299969
322 ,2299969

323 ,2299969
323 ,2299969
323 ,2299969
323 ,2299969

324 ,2299969
324 ,2299969
324 ,2299969
324 ,2299969

325 ,2299969
325 ,2299969
325 ,2299969
325 ,2299969

326 ,2299969
326 ,2299969
326 ,2299969
326 ,2299969

327 ,2299969
327 ,2299969
327 ,2299969
327 ,2299969

328 ,2299969
328 ,2299969
328 ,2299969
328 ,2299969

329 ,2299969
329 ,2299969
329 ,2299969
329 ,2299969

330 ,2299969
330 ,2299969
330 ,2299969
330 ,2299969

331 ,2299969
331 ,2299969
331 ,2299969
331 ,2299969

332 ,2299969
332 ,2299969
332 ,2299969
332 ,2299969

333 ,2299969
333 ,2299969
333 ,2299969
333 ,2299969

334 ,2299969
334 ,2299969
334 ,2299969
334 ,2299969

335 ,2299969
335 ,2299969
335 ,2299969
335 ,2299969

336 ,2299969
336 ,2299969
336 ,2299969
336 ,2299969

337 ,2299969
337 ,2299969
337 ,2299969
337 ,2299969

338 ,2299969
338 ,2299969
338 ,2299969
338 ,2299969

339 ,2299969
339 ,2299969
339 ,2299969
339 ,2299969

340 ,2299969
340 ,2299969
340 ,2299969
340 ,2299969

341 ,2299969
341 ,2299969
341 ,2299969
341 ,2299969

342 ,2299969
342 ,2299969
342 ,2299969
342 ,2299969

343 ,2299969
343 ,2299969
343 ,2299969
343 ,2299969

344 ,2299969
344 ,2299969
344 ,2299969
344 ,2299969

345 ,2299969
345 ,2299969
345 ,2299969
345 ,2299969

346 ,2299969
346 ,2299969
346 ,2299969
346 ,2299969

347 ,2299969
347 ,2299969
347 ,2299969
347 ,2299969

348 ,2299969
348 ,2299969
348 ,2299969
348 ,2299969

349 ,2299969
349 ,2299969
349 ,2299969
349 ,2299969

350 ,2299969
350 ,2299969
350 ,2299969
350 ,2299969

351 ,2299969
351 ,2299969
351 ,2299969
351 ,2299969

352 ,2299969
352 ,2299969
352 ,2299969
352 ,2299969

353 ,2299969
353 ,2299969
353 ,2299969
353 ,2299969

354 ,2299969
354 ,2299969
354 ,2299969
354 ,2299969

355 ,2299969
355 ,2299969
355 ,2299969
355 ,2299969

356 ,2299969
356 ,2299969
356 ,2299969
356 ,2299969

357 ,2299969
357 ,2299969
357 ,2299969
357 ,2299969

358 ,2299969
358 ,2299969
358 ,2299969
358 ,2299969

359 ,2299969
359 ,2299969
359 ,2299969
359 ,2299969

360 ,2299969
360 ,2299969
360 ,2299969
360 ,2299969

361 ,2299969
361 ,2299969
361 ,2299969
361 ,2299969

362 ,2299969
362 ,2299969
362 ,2299969
362 ,2299969

363 ,2299969
363 ,2299969
363 ,2299969
363 ,2299969

364 ,2299969
364 ,2299969
364 ,2299969
364 ,2299969

365 ,2299969
365 ,2299969
365 ,2299969
365 ,2299969

366 ,2299969
366 ,2299969
366 ,2299969
366 ,2299969

367 ,2299969
367 ,2299969
367 ,2299969
367 ,2299969

368 ,2299969
368 ,2299969
368 ,2299969
368 ,2299969

369 ,2299969
369 ,2299969
369 ,2299969
369 ,2299969

370 ,2299969
370 ,2299969
370 ,2299969
370 ,2299969

371 ,2299969
371 ,2299969
371 ,2299969
371 ,2299969

372 ,2299969
372 ,2299969
372 ,2299969
372 ,2299969

373 ,2299969
373 ,2299969
373 ,2299969
373 ,2299969

374 ,2299969
374 ,2299969
374 ,2299969
374 ,2299969

375 ,2299969
375 ,2299969
375 ,2299969
375 ,2299969

376 ,2299969
376 ,2299969
376 ,2299969
376 ,2299969

377 ,2299969
377 ,2299969
377 ,2299969
377 ,2299969

378 ,2299969
378 ,2299969
378 ,2299969
378 ,2299969

379 ,2299969
379 ,2299969
379 ,2299969
379 ,2299969

380 ,2299969
380 ,2299969
380 ,2299969
380 ,2299969

381 ,2299969
381 ,2299969
381 ,2299969
381 ,2299969

382 ,2299969
382 ,2299969
382 ,2299969
382 ,2299969

383 ,2299969
383 ,2299969
383 ,2299969
383 ,2299969

384 ,2299969
384 ,2299969
384 ,2299969
384 ,2299969

385 ,2299969
385 ,2299969
385 ,2299969
385 ,2299969

386 ,2299969
386 ,2299969
386 ,2299969
386 ,2299969

387 ,2299969
387 ,2299969
387 ,2299969
387 ,2299969

388 ,2299969
388 ,2299969
388 ,2299969
388 ,2299969

389 ,2299969
389 ,2299969
389 ,2299969
389 ,2299969

390 ,2299969
390 ,2299969
390 ,2299969
390 ,2299969

391 ,2299969
391 ,2299969
391 ,2299969
391 ,2299969

392 ,2299969
392 ,2299969
392 ,2299969
392 ,2299969

393 ,2299969
393 ,2299969
393 ,2299969
393 ,2299969

394 ,2299969
394 ,2299969
394 ,2299969
394 ,2299969

395 ,2299969
395 ,2299969
395 ,2299969
395 ,2299969

396 ,2299969
396 ,2299969
396 ,2299969
396 ,2299969

397 ,2299969
397 ,2299969
397 ,2299969
397 ,2299969

398 ,2299969
398 ,2299969
398 ,2299969
398 ,2299969

399 ,2299969
399 ,2299969
399 ,2299969
399 ,2299969

400 ,2299969
400 ,2299969
400 ,2299969
400 ,2299969

401 ,2299969
401 ,2299969
401 ,2299969
401 ,2299969

402 ,2299969
402 ,2299969
402 ,2299969
402 ,2299969

403 ,2299969
403 ,2299969
403 ,2299969
403 ,2299969

404 ,2299969
404 ,2299969
404 ,2299969
404 ,2299969

405 ,2299969
405 ,2299969
405 ,2299969
405 ,2299969

406 ,2299969
406 ,2299969
406 ,2299969
406 ,2299969

407 ,2299969
407 ,2299969
407 ,2299969
407 ,2299969

408 ,2299969
408 ,2299969
408 ,2299969
408 ,2299969

409 ,2299969
409 ,2299969
409 ,2299969
409 ,2299969

410 ,2299969
410 ,2299969
410 ,2299969
410 ,2299969

411 ,2299969
411 ,2299969
411 ,2299969
411 ,2299969

412 ,2299969
412 ,2299969
412 ,2299969
412 ,2299969

413 ,2299969
413 ,2299969
413 ,2299969
413 ,2299969

414 ,2299969
414 ,2299969
414 ,2299969
414 ,2299969

415 ,2299969
415 ,2299969
415 ,2299969
415 ,2299969

416 ,2299969
416 ,2299969
416 ,2299969
416 ,2299969

417 ,2299969
417 ,2299969
417 ,2299969
417 ,2299969

418 ,2299969
418 ,2299969
418 ,2299969
418 ,2299969

419 ,2299969
419 ,2299969
419 ,2299969
419 ,2299969

420 ,2299969
420 ,2299969
420 ,2299969
420 ,2299969

421 ,2299969
421 ,2299969
421 ,2299969
421 ,2299969

422 ,2299969
422 ,2299969
422 ,2299969
422 ,2299969

423 ,2299969
423 ,2299969
423 ,2299969
423 ,2299969

424 ,2299969
424 ,2299969
424 ,2299969
424 ,2299969

425 ,2299969
425 ,2299969
425 ,2299969
425 ,2299969

426 ,2299969
426 ,2299969
426 ,2299969
426 ,2299969

427 ,2299969
427 ,2299969
427 ,2299969
427 ,2299969

428 ,2299969
428 ,2299969
428 ,2299969
428 ,2299969

429 ,2299969
429 ,2299969
429 ,2299969
429 ,2299969

430 ,2299969
430 ,2299969
430 ,2299969
430 ,2299969

431 ,2299969
431 ,2299969
431 ,2299969
431 ,2299969

432 ,2299969
432 ,2299969
432 ,2299969
432 ,2299969

433 ,2299969
433 ,2299969
433 ,2299969
433 ,2299969

434 ,2299969
434 ,2299969
434 ,2299969
434 ,2299969

435 ,2299969
435 ,2299969
435 ,2299969
435 ,2299969

436 ,2299969
436 ,2299969
436 ,2299969
436 ,2299969

437 ,2299969
437 ,2299969
437 ,2299969
437 ,2299969

438 ,2299969
438 ,2299969
438 ,2299969
438 ,2299969

439 ,2299969
439 ,2299969
439 ,2299969
439 ,2299969

440 ,2299969
440 ,2299969
440 ,2299969
440 ,2299969

441 ,2299969
441 ,2299969
441 ,2299969
441 ,2299969

442 ,2299969
442 ,2299969
442 ,2299969
442 ,2299969

443 ,2299969
443 ,2299969
443 ,2299969
443 ,2299969

444 ,2299969
444 ,2299969
444 ,2299969
444 ,2299969

445 ,2299969
445 ,2299969
445 ,2299969
445 ,2299969

446 ,2299969
446 ,2299969
446 ,2299969
446 ,2299969

447 ,2299969
447 ,2299969
447 ,2299969
447 ,2299969

448 ,2299969
448 ,2299969
448 ,2299969
448 ,2299969

449 ,2299969
449 ,2299969
449 ,2299969
449 ,2299969

450 ,2299969
450 ,2299969
450 ,2299969
450 ,2299969

451 ,2299969
451 ,2299969
451 ,2299969
451 ,2299969

452 ,2299969
452 ,2299969
452 ,2299969
452 ,2299969

453 ,2299969
453 ,2299969
453 ,2299969
453 ,2299969

454 ,2299969
454 ,2299969
454 ,2299969
454 ,2299969

455 ,2299969
455 ,2299969
455 ,2299969
455 ,2299969

456 ,2299969
456 ,2299969
456 ,2299969
456 ,2299969

457 ,2299969
457 ,2299969
457 ,2299969
457 ,2299969

458 ,2299969
458 ,2299969
458 ,2299969
458 ,2299969

459 ,2299969
459 ,2299969
459 ,2299969
459 ,2299969

460 ,2299969
460 ,2299969
460 ,2299969
460 ,2299969

461 ,2299969
461 ,2299969
461 ,2299969
461 ,2299969

462 ,2299969
462 ,2299969
462 ,2299969
462 ,2299969

463 ,2299969
463 ,2299969
463 ,2299969
463 ,2299969

464 ,2299969
464 ,2299969
464 ,2299969
464 ,2299969

465 ,2299969
465 ,2299969
465 ,2299969
465 ,2299969

466 ,2299969
466 ,2299969
466 ,2299969
466 ,2299969

467 ,2299969
467 ,2299969
467 ,2299969
467 ,2299969

468 ,2299969
468 ,2299969
468 ,2299969
468 ,2299969

469 ,2299969
469 ,2299969
469 ,2299969
469 ,2299969

470 ,2299969
470 ,2299969
470 ,2299969
470 ,2299969

471 ,2299969
471 ,2299969
471 ,2299969
471 ,2299969

472 ,2299969
472 ,2299969
472 ,2299969
472 ,2299969

473 ,2299969
473 ,2299969
473 ,2299969
473 ,2299969

474 ,2299969
474 ,2299969
474 ,2299969
474 ,2299969

475 ,2299969
475 ,2299969
475 ,2299969
475 ,2299969

476 ,2299969
476 ,2299969
476 ,2299969
476 ,2299969

477 ,2299969
477 ,2299969
477 ,2299969
477 ,2299969

478 ,2299969
478 ,2299969
478 ,2299969
478 ,2299969

479 ,2299969
479 ,2299969
479 ,2299969
479 ,2299969

480 ,2299969
480 ,2299969
480 ,2299969
480 ,2299969

481 ,2299969
481 ,2299969
481 ,2299969
481 ,2299969

482 ,2299969
482 ,2299969
482 ,2299969
482 ,2299969

483 ,2299969
483 ,2299969
483 ,2299969
483 ,2299969

484 ,2299969
484 ,2299969
484 ,2299969
484 ,2299969

485 ,2299969
485 ,2299969
485 ,2299969
485 ,2299969

486 ,2299969
486 ,2299969
486 ,2299969
486 ,2299969

487 ,2299969
487 ,2299969
487 ,2299969
487 ,2299969

488 ,2299969
488 ,2299969
488 ,2299969
488 ,2299969

489 ,2299969
489 ,2299969
489 ,2299969
489 ,2299969

490 ,2299969
490 ,2299969
490 ,2299969
490 ,2299969

491 ,2299969
491 ,2299969
491 ,2299969
491 ,2299969

492 ,2299969
492 ,2299969
492 ,2299969
492 ,2299969

493 ,2299969
493 ,2299969
493 ,2299969
493 ,2299969

494 ,2299969
494 ,2299969
494 ,2299969
494 ,2299969

495 ,2299969
495 ,2299969
495 ,2299969
495 ,2299969

496 ,2299969
496 ,2299969
496 ,2299969
496 ,2299969

497 ,2299969
497 ,2299969
497 ,2299969
497 ,2299969

498 ,2299969
498 ,2299969
498 ,2299969
498 ,2299969

499 ,2299969
499 ,2299969
499 ,2299969
499 ,2299969

500 ,2299969
500 ,2299969
500 ,2299969
500 ,2299969

501 ,2299969
501 ,2299969
501 ,2299969
501 ,2299969

502 ,2299969
502 ,2299969
502 ,2299969
502 ,2299969

503 ,2299969
503 ,2299969
503 ,2299969
503 ,2299969

504 ,2299969
504 ,2299969
504 ,2299969
504 ,2299969

505 ,2299969
505 ,2299969
505 ,2299969
505 ,2299969

506 ,2299969
506 ,2299969
506 ,2299969
506 ,2299969

507 ,2299969
507 ,2299969
507 ,2299969
507 ,2299969

508 ,2299969
508 ,2299969
508 ,2299969
508 ,2299969

509 ,2299969
509 ,2299969
509 ,2299969
509 ,2299969

510 ,2299969
510 ,2299969
510 ,2299969
510 ,2299969

511 ,2299969
511 ,2299969
511 ,2299969
511 ,2299969

512 ,2299969
512 ,2299969
512 ,2299969
512 ,2299969

513 ,2299969
513 ,2299969
513 ,2299969
513 ,2299969

514 ,2299969
514 ,2299969
514 ,2299969
514 ,2299969

515 ,2299969
515 ,2299969
515 ,2299969
515 ,2299969

516 ,2299969
516 ,2299969
516 ,2299969
516 ,2299969

517 ,2299969
517 ,2299969
517 ,2299969
517 ,2299969

518 ,2299969
518 ,2299969
518 ,2299969
518 ,2299969

519 ,2299969
519 ,2299969
519 ,2299969
519 ,2299969

520 ,2299969
520 ,2299969
520 ,2299969
520 ,2299969

521 ,2299969
521 ,2299969
521 ,2299969
521 ,2299969

522 ,2299969
522 ,2299969
522 ,2299969
522 ,2299969

523 ,2299969
523 ,2299969
523 ,2299969
523 ,2299969

524 ,2299969
524 ,2299969
524 ,2299969
524 ,2299969

525 ,2299969
525 ,2299969
525 ,2299969
525 ,2299969

526 ,2299969
526 ,2299969
526 ,2299969
526 ,2299969

527 ,2299969
527 ,2299969
527 ,2299969
527 ,2299969

528 ,2299969
528 ,2299969
528 ,2299969
528 ,2299969

529 ,2299969
529 ,2299969
529 ,2299969
529 ,2299969

530 ,2299969
530 ,2299969
530 ,2299969
530 ,2299969

531 ,2299969
531 ,2299969
531 ,2299969
531 ,2299969

532 ,2299969
532 ,2299969
532 ,2299969
532 ,2299969

533 ,2299969
533 ,2299969
533 ,2299969
533 ,2299969

534 ,2299969
534 ,2299969
534 ,2299969
534 ,2299969

535 ,2299969
535 ,2299969
535 ,2299969
535 ,2299969

536 ,2299969
536 ,2299969
536 ,2299969
536 ,2299969

537 ,2299969
537 ,2299969
537 ,2299969
537 ,2299969

538 ,2299969
538 ,2299969
538 ,2299969
538 ,2299969

539 ,2299969
539 ,2299969
539 ,2299969
539 ,2299969

540 ,2299969
540 ,2299969
540 ,2299969
540 ,2299969

541 ,2299969
541 ,2299969
541 ,2299969
541 ,2299969

542 ,2299969
542 ,2299969
542 ,2299969
542 ,2299969

543 ,2299969
543 ,2299969
543 ,2299969
543 ,2299969

544 ,2299969
544 ,2299969
544 ,2299969
544 ,2299969

545 ,2299969
545 ,2299969
545 ,2299969
545 ,2299969

546 ,2299969
546 ,2299969
546 ,2299969
546 ,2299969

547 ,2299969
547 ,2299969
547 ,2299969
547 ,2299969

548 ,2299969
548 ,2299969
548 ,2299969
548 ,2299969

549 ,2299969
549 ,2299969
549 ,2299969
549 ,2299969

550 ,2299969
550 ,2299969
550 ,2299969
550 ,2299969

551 ,2299969
551 ,2299969
551 ,2299969
551 ,2299969

552 ,2299969
552 ,2299969
552 ,2299969
552 ,2299969

553 ,2299969
553 ,2299969
553 ,2299969
553 ,2299969

554 ,2299969
554 ,2299969
554 ,2299969
554 ,2299969

555 ,2299969
555 ,2299969
555 ,2299969
555 ,2299969

556 ,2299969
556 ,2299969
556 ,2299969
556 ,2299969

557 ,2299969
557 ,2299969
557 ,2299969
557 ,2299969

558 ,2299969
558 ,2299969
558 ,2299969
558 ,2299969

559 ,2299969
559 ,2299969
559 ,2299969
559 ,2299969

560 ,2299969
560 ,2299969
560 ,2299969
560 ,2299969

561 ,2299969
561 ,2299969
561 ,2299969
561 ,2299969

562 ,2299969
562 ,2299969
562 ,2299969
562 ,2299969

563 ,2299969
563 ,2299969
563 ,2299969
563 ,2299969

564 ,2299969
564 ,2299969
564 ,2299969
564 ,2299969

565 ,2299969
565 ,2299969
565 ,2299969
565 ,2299969

566 ,2299969
566 ,2299969
566 ,2299969
566 ,2299969

567 ,2299969
567 ,2299969
567 ,2299969
567 ,2299969

568 ,2299969
568 ,2299969
568 ,2299969
568 ,2299969

569 ,2299969
569 ,2299969
569 ,2299969
569 ,2299969

570 ,2299969
570 ,2299969
570 ,2299969
570 ,2299969

571 ,2299969
571 ,2299969
571 ,2299969
571 ,2299969

572 ,2299969
572 ,2299969
572 ,2299969
572 ,2299969

573 ,2299969
573 ,2299969
573 ,2299969
573 ,2299969

574 ,2299969
574 ,2299969
574 ,2299969
574 ,2299969

575 ,2299969
575 ,2299969
575 ,2299969
575 ,2299969

576 ,2299969
576 ,2299969
576 ,2299969
576 ,2299969

